\relax 
\@writefile{toc}{\contentsline {section}{\numberline {0.1}filler text}{4}{}\protected@file@percent }
\newlabel{sec:filler text}{{0.1}{4}}
\@writefile{toc}{\contentsline {section}{\numberline {0.2}Crime and Punishment}{7}{}\protected@file@percent }
\newlabel{sec:Crime and Punishment}{{0.2}{7}}
\@writefile{toc}{\contentsline {subsection}{\numberline {0.2.1}Part One}{7}{}\protected@file@percent }
\newlabel{sub:part-one}{{0.2.1}{7}}
\@writefile{toc}{\contentsline {subsection}{\numberline {0.2.2}Part Two}{8}{}\protected@file@percent }
\newlabel{sub:part-two}{{0.2.2}{8}}
\@writefile{toc}{\contentsline {subsection}{\numberline {0.2.3}Part Three}{9}{}\protected@file@percent }
\newlabel{sub:part-three}{{0.2.3}{9}}
\gdef \@abspage@last{9}
