\contentsline {section}{\numberline {0.1}filler text}{4}{}%
\contentsline {section}{\numberline {0.2}Crime and Punishment}{7}{}%
\contentsline {subsection}{\numberline {0.2.1}Part One}{7}{}%
\contentsline {subsection}{\numberline {0.2.2}Part Two}{8}{}%
\contentsline {subsection}{\numberline {0.2.3}Part Three}{9}{}%
